"sku","name","status","visibility","weight","description","_store","_attribute_set","_type","_category","_root_category","_product_websites","enable_googlecheckout","has_options","image","small_image","large_image","small_image_label","image_label","thumbnail_label","thumbnail","options_container","short_description","tax_class_id","url_key","is_in_stock","use_config_min_qty","filter","_media_attribute_id","_media_image","_media_lable","_media_position","_media_is_disabled","_super_products_sku","_super_attribute_code","_super_attribute_option","_super_attribute_price_corr","_links_related_sku"
11550027442,11550027442,1,1,1,"&nbsp;",,"Default","simple",,"Default Category","base",1,1,,,,,,,,"Block after Info Column","&nbsp;",2,,1,1,,88,,,1,0,,,,,
,11550027442,1,1,1,"&nbsp;","en","Default","simple",,"Default Category","base",1,1,,,,,,,,"Block after Info Column","&nbsp;",2,11550027442,1,1,,88,,,1,0,,,,,
,"שמלת גלביה לילי",1,1,1,"&nbsp;","he","Default","simple",,"Default Category","base",1,1,,,,,,,,"Block after Info Column","&nbsp;",2,11550027442,1,1,,88,,,1,0,,,,,
11550027444,11550027444,1,1,1,"&nbsp;",,"Default","simple",,"Default Category","base",1,1,,,,,,,,"Block after Info Column","&nbsp;",2,,1,1,,88,,,1,0,,,,,
,11550027444,1,1,1,"&nbsp;","en","Default","simple",,"Default Category","base",1,1,,,,,,,,"Block after Info Column","&nbsp;",2,11550027444,1,1,,88,,,1,0,,,,,
,"שמלת גלביה לילי",1,1,1,"&nbsp;","he","Default","simple",,"Default Category","base",1,1,,,,,,,,"Block after Info Column","&nbsp;",2,11550027444,1,1,,88,,,1,0,,,,,
11560002534,11560002534,1,1,1,"&nbsp;",,"Default","simple",,"Default Category","base",1,1,,,,,,,,"Block after Info Column","&nbsp;",2,,1,1,,88,,,1,0,,,,,
,11560002534,1,1,1,"&nbsp;","en","Default","simple",,"Default Category","base",1,1,,,,,,,,"Block after Info Column","&nbsp;",2,11560002534,1,1,,88,,,1,0,,,,,
,"חולצת בריזה",1,1,1,"&nbsp;","he","Default","simple",,"Default Category","base",1,1,,,,,,,,"Block after Info Column","&nbsp;",2,11560002534,1,1,,88,,,1,0,,,,,
11560002536,11560002536,1,1,1,"&nbsp;",,"Default","simple",,"Default Category","base",1,1,,,,,,,,"Block after Info Column","&nbsp;",2,,1,1,,88,,,1,0,,,,,
,11560002536,1,1,1,"&nbsp;","en","Default","simple",,"Default Category","base",1,1,,,,,,,,"Block after Info Column","&nbsp;",2,11560002536,1,1,,88,,,1,0,,,,,
,"חולצת בריזה",1,1,1,"&nbsp;","he","Default","simple",,"Default Category","base",1,1,,,,,,,,"Block after Info Column","&nbsp;",2,11560002536,1,1,,88,,,1,0,,,,,
11560002538,11560002538,1,1,1,"&nbsp;",,"Default","simple",,"Default Category","base",1,1,,,,,,,,"Block after Info Column","&nbsp;",2,,1,1,,88,,,1,0,,,,,
,11560002538,1,1,1,"&nbsp;","en","Default","simple",,"Default Category","base",1,1,,,,,,,,"Block after Info Column","&nbsp;",2,11560002538,1,1,,88,,,1,0,,,,,
,"חולצת בריזה",1,1,1,"&nbsp;","he","Default","simple",,"Default Category","base",1,1,,,,,,,,"Block after Info Column","&nbsp;",2,11560002538,1,1,,88,,,1,0,,,,,
11560002540,11560002540,1,1,1,"&nbsp;",,"Default","simple",,"Default Category","base",1,1,,,,,,,,"Block after Info Column","&nbsp;",2,,1,1,,88,,,1,0,,,,,
,11560002540,1,1,1,"&nbsp;","en","Default","simple",,"Default Category","base",1,1,,,,,,,,"Block after Info Column","&nbsp;",2,11560002540,1,1,,88,,,1,0,,,,,
,"חולצת בריזה",1,1,1,"&nbsp;","he","Default","simple",,"Default Category","base",1,1,,,,,,,,"Block after Info Column","&nbsp;",2,11560002540,1,1,,88,,,1,0,,,,,
11560002542,11560002542,1,1,1,"&nbsp;",,"Default","simple",,"Default Category","base",1,1,,,,,,,,"Block after Info Column","&nbsp;",2,,1,1,,88,,,1,0,,,,,
,11560002542,1,1,1,"&nbsp;","en","Default","simple",,"Default Category","base",1,1,,,,,,,,"Block after Info Column","&nbsp;",2,11560002542,1,1,,88,,,1,0,,,,,
,"חולצת בריזה",1,1,1,"&nbsp;","he","Default","simple",,"Default Category","base",1,1,,,,,,,,"Block after Info Column","&nbsp;",2,11560002542,1,1,,88,,,1,0,,,,,
11560002544,11560002544,1,1,1,"&nbsp;",,"Default","simple",,"Default Category","base",1,1,,,,,,,,"Block after Info Column","&nbsp;",2,,1,1,,88,,,1,0,,,,,
,11560002544,1,1,1,"&nbsp;","en","Default","simple",,"Default Category","base",1,1,,,,,,,,"Block after Info Column","&nbsp;",2,11560002544,1,1,,88,,,1,0,,,,,
,"חולצת בריזה",1,1,1,"&nbsp;","he","Default","simple",,"Default Category","base",1,1,,,,,,,,"Block after Info Column","&nbsp;",2,11560002544,1,1,,88,,,1,0,,,,,
11560002734,11560002734,1,1,1,"&nbsp;",,"Default","simple",,"Default Category","base",1,1,,,,,,,,"Block after Info Column","&nbsp;",2,,1,1,,88,,,1,0,,,,,
,11560002734,1,1,1,"&nbsp;","en","Default","simple",,"Default Category","base",1,1,,,,,,,,"Block after Info Column","&nbsp;",2,11560002734,1,1,,88,,,1,0,,,,,
,"חולצת בריזה",1,1,1,"&nbsp;","he","Default","simple",,"Default Category","base",1,1,,,,,,,,"Block after Info Column","&nbsp;",2,11560002734,1,1,,88,,,1,0,,,,,
11560002736,11560002736,1,1,1,"&nbsp;",,"Default","simple",,"Default Category","base",1,1,,,,,,,,"Block after Info Column","&nbsp;",2,,1,1,,88,,,1,0,,,,,
,11560002736,1,1,1,"&nbsp;","en","Default","simple",,"Default Category","base",1,1,,,,,,,,"Block after Info Column","&nbsp;",2,11560002736,1,1,,88,,,1,0,,,,,
,"חולצת בריזה",1,1,1,"&nbsp;","he","Default","simple",,"Default Category","base",1,1,,,,,,,,"Block after Info Column","&nbsp;",2,11560002736,1,1,,88,,,1,0,,,,,
11560002738,11560002738,1,1,1,"&nbsp;",,"Default","simple",,"Default Category","base",1,1,,,,,,,,"Block after Info Column","&nbsp;",2,,1,1,,88,,,1,0,,,,,
,11560002738,1,1,1,"&nbsp;","en","Default","simple",,"Default Category","base",1,1,,,,,,,,"Block after Info Column","&nbsp;",2,11560002738,1,1,,88,,,1,0,,,,,
,"חולצת בריזה",1,1,1,"&nbsp;","he","Default","simple",,"Default Category","base",1,1,,,,,,,,"Block after Info Column","&nbsp;",2,11560002738,1,1,,88,,,1,0,,,,,
11560002740,11560002740,1,1,1,"&nbsp;",,"Default","simple",,"Default Category","base",1,1,,,,,,,,"Block after Info Column","&nbsp;",2,,1,1,,88,,,1,0,,,,,
,11560002740,1,1,1,"&nbsp;","en","Default","simple",,"Default Category","base",1,1,,,,,,,,"Block after Info Column","&nbsp;",2,11560002740,1,1,,88,,,1,0,,,,,
,"חולצת בריזה",1,1,1,"&nbsp;","he","Default","simple",,"Default Category","base",1,1,,,,,,,,"Block after Info Column","&nbsp;",2,11560002740,1,1,,88,,,1,0,,,,,
11560002742,11560002742,1,1,1,"&nbsp;",,"Default","simple",,"Default Category","base",1,1,,,,,,,,"Block after Info Column","&nbsp;",2,,1,1,,88,,,1,0,,,,,
,11560002742,1,1,1,"&nbsp;","en","Default","simple",,"Default Category","base",1,1,,,,,,,,"Block after Info Column","&nbsp;",2,11560002742,1,1,,88,,,1,0,,,,,
,"חולצת בריזה",1,1,1,"&nbsp;","he","Default","simple",,"Default Category","base",1,1,,,,,,,,"Block after Info Column","&nbsp;",2,11560002742,1,1,,88,,,1,0,,,,,
11560002744,11560002744,1,1,1,"&nbsp;",,"Default","simple",,"Default Category","base",1,1,,,,,,,,"Block after Info Column","&nbsp;",2,,1,1,,88,,,1,0,,,,,
,11560002744,1,1,1,"&nbsp;","en","Default","simple",,"Default Category","base",1,1,,,,,,,,"Block after Info Column","&nbsp;",2,11560002744,1,1,,88,,,1,0,,,,,
,"חולצת בריזה",1,1,1,"&nbsp;","he","Default","simple",,"Default Category","base",1,1,,,,,,,,"Block after Info Column","&nbsp;",2,11560002744,1,1,,88,,,1,0,,,,,
11560030232,11560030232,1,1,1,"&nbsp;",,"Default","simple",,"Default Category","base",1,1,,,,,,,,"Block after Info Column","&nbsp;",2,,1,1,,88,,,1,0,,,,,
,11560030232,1,1,1,"&nbsp;","en","Default","simple",,"Default Category","base",1,1,,,,,,,,"Block after Info Column","&nbsp;",2,11560030232,1,1,,88,,,1,0,,,,,
,"חולצת מריון",1,1,1,"&nbsp;","he","Default","simple",,"Default Category","base",1,1,,,,,,,,"Block after Info Column","&nbsp;",2,11560030232,1,1,,88,,,1,0,,,,,
11560030234,11560030234,1,1,1,"&nbsp;",,"Default","simple",,"Default Category","base",1,1,,,,,,,,"Block after Info Column","&nbsp;",2,,1,1,,88,,,1,0,,,,,
,11560030234,1,1,1,"&nbsp;","en","Default","simple",,"Default Category","base",1,1,,,,,,,,"Block after Info Column","&nbsp;",2,11560030234,1,1,,88,,,1,0,,,,,
,"חולצת מריון",1,1,1,"&nbsp;","he","Default","simple",,"Default Category","base",1,1,,,,,,,,"Block after Info Column","&nbsp;",2,11560030234,1,1,,88,,,1,0,,,,,
11560030236,11560030236,1,1,1,"&nbsp;",,"Default","simple",,"Default Category","base",1,1,,,,,,,,"Block after Info Column","&nbsp;",2,,1,1,,88,,,1,0,,,,,
,11560030236,1,1,1,"&nbsp;","en","Default","simple",,"Default Category","base",1,1,,,,,,,,"Block after Info Column","&nbsp;",2,11560030236,1,1,,88,,,1,0,,,,,
,"חולצת מריון",1,1,1,"&nbsp;","he","Default","simple",,"Default Category","base",1,1,,,,,,,,"Block after Info Column","&nbsp;",2,11560030236,1,1,,88,,,1,0,,,,,
11560030238,11560030238,1,1,1,"&nbsp;",,"Default","simple",,"Default Category","base",1,1,,,,,,,,"Block after Info Column","&nbsp;",2,,1,1,,88,,,1,0,,,,,
,11560030238,1,1,1,"&nbsp;","en","Default","simple",,"Default Category","base",1,1,,,,,,,,"Block after Info Column","&nbsp;",2,11560030238,1,1,,88,,,1,0,,,,,
,"חולצת מריון",1,1,1,"&nbsp;","he","Default","simple",,"Default Category","base",1,1,,,,,,,,"Block after Info Column","&nbsp;",2,11560030238,1,1,,88,,,1,0,,,,,
11560030240,11560030240,1,1,1,"&nbsp;",,"Default","simple",,"Default Category","base",1,1,,,,,,,,"Block after Info Column","&nbsp;",2,,1,1,,88,,,1,0,,,,,
,11560030240,1,1,1,"&nbsp;","en","Default","simple",,"Default Category","base",1,1,,,,,,,,"Block after Info Column","&nbsp;",2,11560030240,1,1,,88,,,1,0,,,,,
,"חולצת מריון",1,1,1,"&nbsp;","he","Default","simple",,"Default Category","base",1,1,,,,,,,,"Block after Info Column","&nbsp;",2,11560030240,1,1,,88,,,1,0,,,,,
11560031032,11560031032,1,1,1,"&nbsp;",,"Default","simple",,"Default Category","base",1,1,,,,,,,,"Block after Info Column","&nbsp;",2,,1,1,,88,,,1,0,,,,,
,11560031032,1,1,1,"&nbsp;","en","Default","simple",,"Default Category","base",1,1,,,,,,,,"Block after Info Column","&nbsp;",2,11560031032,1,1,,88,,,1,0,,,,,
,"חולצת מריון",1,1,1,"&nbsp;","he","Default","simple",,"Default Category","base",1,1,,,,,,,,"Block after Info Column","&nbsp;",2,11560031032,1,1,,88,,,1,0,,,,,
11560031034,11560031034,1,1,1,"&nbsp;",,"Default","simple",,"Default Category","base",1,1,,,,,,,,"Block after Info Column","&nbsp;",2,,1,1,,88,,,1,0,,,,,
,11560031034,1,1,1,"&nbsp;","en","Default","simple",,"Default Category","base",1,1,,,,,,,,"Block after Info Column","&nbsp;",2,11560031034,1,1,,88,,,1,0,,,,,
,"חולצת מריון",1,1,1,"&nbsp;","he","Default","simple",,"Default Category","base",1,1,,,,,,,,"Block after Info Column","&nbsp;",2,11560031034,1,1,,88,,,1,0,,,,,
11560031036,11560031036,1,1,1,"&nbsp;",,"Default","simple",,"Default Category","base",1,1,,,,,,,,"Block after Info Column","&nbsp;",2,,1,1,,88,,,1,0,,,,,
,11560031036,1,1,1,"&nbsp;","en","Default","simple",,"Default Category","base",1,1,,,,,,,,"Block after Info Column","&nbsp;",2,11560031036,1,1,,88,,,1,0,,,,,
,"חולצת מריון",1,1,1,"&nbsp;","he","Default","simple",,"Default Category","base",1,1,,,,,,,,"Block after Info Column","&nbsp;",2,11560031036,1,1,,88,,,1,0,,,,,
11560031038,11560031038,1,1,1,"&nbsp;",,"Default","simple",,"Default Category","base",1,1,,,,,,,,"Block after Info Column","&nbsp;",2,,1,1,,88,,,1,0,,,,,
,11560031038,1,1,1,"&nbsp;","en","Default","simple",,"Default Category","base",1,1,,,,,,,,"Block after Info Column","&nbsp;",2,11560031038,1,1,,88,,,1,0,,,,,
,"חולצת מריון",1,1,1,"&nbsp;","he","Default","simple",,"Default Category","base",1,1,,,,,,,,"Block after Info Column","&nbsp;",2,11560031038,1,1,,88,,,1,0,,,,,
11560031040,11560031040,1,1,1,"&nbsp;",,"Default","simple",,"Default Category","base",1,1,,,,,,,,"Block after Info Column","&nbsp;",2,,1,1,,88,,,1,0,,,,,
,11560031040,1,1,1,"&nbsp;","en","Default","simple",,"Default Category","base",1,1,,,,,,,,"Block after Info Column","&nbsp;",2,11560031040,1,1,,88,,,1,0,,,,,
,"חולצת מריון",1,1,1,"&nbsp;","he","Default","simple",,"Default Category","base",1,1,,,,,,,,"Block after Info Column","&nbsp;",2,11560031040,1,1,,88,,,1,0,,,,,
11570040201,11570040201,1,1,1,"&nbsp;",,"Default","simple",,"Default Category","base",1,1,,,,,,,,"Block after Info Column","&nbsp;",2,,1,1,,88,,,1,0,,,,,
,11570040201,1,1,1,"&nbsp;","en","Default","simple",,"Default Category","base",1,1,,,,,,,,"Block after Info Column","&nbsp;",2,11570040201,1,1,,88,,,1,0,,,,,
,"חגורת אבזם יהלום",1,1,1,"&nbsp;","he","Default","simple",,"Default Category","base",1,1,,,,,,,,"Block after Info Column","&nbsp;",2,11570040201,1,1,,88,,,1,0,,,,,
11570070201,11570070201,1,1,1,"&nbsp;",,"Default","simple",,"Default Category","base",1,1,,,,,,,,"Block after Info Column","&nbsp;",2,,1,1,,88,,,1,0,,,,,
,11570070201,1,1,1,"&nbsp;","en","Default","simple",,"Default Category","base",1,1,,,,,,,,"Block after Info Column","&nbsp;",2,11570070201,1,1,,88,,,1,0,,,,,
,"חגורת פלו",1,1,1,"&nbsp;","he","Default","simple",,"Default Category","base",1,1,,,,,,,,"Block after Info Column","&nbsp;",2,11570070201,1,1,,88,,,1,0,,,,,
11576000200,11576000200,1,1,1,"&nbsp;",,"Default","simple",,"Default Category","base",1,1,,,,,,,,"Block after Info Column","&nbsp;",2,,1,1,,88,,,1,0,,,,,
,11576000200,1,1,1,"&nbsp;","en","Default","simple",,"Default Category","base",1,1,,,,,,,,"Block after Info Column","&nbsp;",2,11576000200,1,1,,88,,,1,0,,,,,
,"ארנק מגנט",1,1,1,"&nbsp;","he","Default","simple",,"Default Category","base",1,1,,,,,,,,"Block after Info Column","&nbsp;",2,11576000200,1,1,,88,,,1,0,,,,,
11576000300,11576000300,1,1,1,"&nbsp;",,"Default","simple",,"Default Category","base",1,1,,,,,,,,"Block after Info Column","&nbsp;",2,,1,1,,88,,,1,0,,,,,
,11576000300,1,1,1,"&nbsp;","en","Default","simple",,"Default Category","base",1,1,,,,,,,,"Block after Info Column","&nbsp;",2,11576000300,1,1,,88,,,1,0,,,,,
,"ארנק מגנט",1,1,1,"&nbsp;","he","Default","simple",,"Default Category","base",1,1,,,,,,,,"Block after Info Column","&nbsp;",2,11576000300,1,1,,88,,,1,0,,,,,
11576040200,11576040200,1,1,1,"&nbsp;",,"Default","simple",,"Default Category","base",1,1,,,,,,,,"Block after Info Column","&nbsp;",2,,1,1,,88,,,1,0,,,,,
,11576040200,1,1,1,"&nbsp;","en","Default","simple",,"Default Category","base",1,1,,,,,,,,"Block after Info Column","&nbsp;",2,11576040200,1,1,,88,,,1,0,,,,,
,"ארנק חצי חצי",1,1,1,"&nbsp;","he","Default","simple",,"Default Category","base",1,1,,,,,,,,"Block after Info Column","&nbsp;",2,11576040200,1,1,,88,,,1,0,,,,,
11576043400,11576043400,1,1,1,"&nbsp;",,"Default","simple",,"Default Category","base",1,1,,,,,,,,"Block after Info Column","&nbsp;",2,,1,1,,88,,,1,0,,,,,
,11576043400,1,1,1,"&nbsp;","en","Default","simple",,"Default Category","base",1,1,,,,,,,,"Block after Info Column","&nbsp;",2,11576043400,1,1,,88,,,1,0,,,,,
,"ארנק חצי חצי",1,1,1,"&nbsp;","he","Default","simple",,"Default Category","base",1,1,,,,,,,,"Block after Info Column","&nbsp;",2,11576043400,1,1,,88,,,1,0,,,,,
12420110232,12420110232,1,1,1,"&nbsp;",,"Default","simple",,"Default Category","base",1,1,,,,,,,,"Block after Info Column","&nbsp;",2,,1,1,,88,,,1,0,,,,,
,12420110232,1,1,1,"&nbsp;","en","Default","simple",,"Default Category","base",1,1,,,,,,,,"Block after Info Column","&nbsp;",2,12420110232,1,1,,88,,,1,0,,,,,
,"חצאית פופ",1,1,1,"&nbsp;","he","Default","simple",,"Default Category","base",1,1,,,,,,,,"Block after Info Column","&nbsp;",2,12420110232,1,1,,88,,,1,0,,,,,
12420110234,12420110234,1,1,1,"&nbsp;",,"Default","simple",,"Default Category","base",1,1,,,,,,,,"Block after Info Column","&nbsp;",2,,1,1,,88,,,1,0,,,,,
,12420110234,1,1,1,"&nbsp;","en","Default","simple",,"Default Category","base",1,1,,,,,,,,"Block after Info Column","&nbsp;",2,12420110234,1,1,,88,,,1,0,,,,,
,"חצאית פופ",1,1,1,"&nbsp;","he","Default","simple",,"Default Category","base",1,1,,,,,,,,"Block after Info Column","&nbsp;",2,12420110234,1,1,,88,,,1,0,,,,,
12420110236,12420110236,1,1,1,"&nbsp;",,"Default","simple",,"Default Category","base",1,1,,,,,,,,"Block after Info Column","&nbsp;",2,,1,1,,88,,,1,0,,,,,
,12420110236,1,1,1,"&nbsp;","en","Default","simple",,"Default Category","base",1,1,,,,,,,,"Block after Info Column","&nbsp;",2,12420110236,1,1,,88,,,1,0,,,,,
,"חצאית פופ",1,1,1,"&nbsp;","he","Default","simple",,"Default Category","base",1,1,,,,,,,,"Block after Info Column","&nbsp;",2,12420110236,1,1,,88,,,1,0,,,,,
"sku124201102389","Name-12420110238",1,1,1,"&nbsp;",,"Default","simple",,"Default Category","base",1,1,,,,,,,,"Block after Info Column","&nbsp;",2,"Name-12420110238",1,1,,88,,,1,0,,,,,
,"Name-12420110238",1,1,1,"&nbsp;","en","Default","simple",,"Default Category","base",1,1,,,,,,,,"Block after Info Column","&nbsp;",2,"Name-12420110238",1,1,,88,,,1,0,,,,,
,"Name-12420110238",1,1,1,"&nbsp;","he","Default","simple",,"Default Category","base",1,1,,,,,,,,"Block after Info Column","&nbsp;",2,"Name-12420110238",1,1,,88,,,1,0,,,,,
124201102367,12420110236,1,1,1,"&nbsp;",,"Default","simple",,"Default Category","base",1,1,,,,,,,,"Block after Info Column","&nbsp;",2,,1,1,,88,,,1,0,,,,,
,12420110236,1,1,1,"&nbsp;","en","Default","simple",,"Default Category","base",1,1,,,,,,,,"Block after Info Column","&nbsp;",2,12420110236,1,1,,88,,,1,0,,,,,
,"חצאית פופ",1,1,1,"&nbsp;","he","Default","simple",,"Default Category","base",1,1,,,,,,,,"Block after Info Column","&nbsp;",2,12420110236,1,1,,88,,,1,0,,,,,
